%YAML 1.1
%TAG !u! tag:unity3d.com,2011:
--- !u!65 &4441319247727476699
BoxCollider:
  m_ObjectHideFlags: 0
  m_CorrespondingSourceObject: {fileID: 0}
  m_PrefabInstance: {fileID: 0}
  m_PrefabAsset: {fileID: 0}
  m_GameObject: {fileID: 4441319247727507836}
  m_Material: {fileID: 0}
  m_IsTrigger: 0
  m_Enabled: 1
  serializedVersion: 2
  m_Size: {x: 0.021166459, y: 0.019342005, z: 0.05560648}
  m_Center: {x: -0.0004743915, y: -0.0002235821, z: 0.023968428}
--- !u!1 &4441319248487578551
GameObject:
  m_ObjectHideFlags: 0
  m_CorrespondingSourceObject: {fileID: 0}
  m_PrefabInstance: {fileID: 0}
  m_PrefabAsset: {fileID: 0}
  serializedVersion: 6
  m_Component:
  - component: {fileID: 4441319248487578548}
  m_Layer: 9
  m_Name: Spruce Tree 2
  m_TagString: Untagged
  m_Icon: {fileID: 0}
  m_NavMeshLayer: 0
  m_StaticEditorFlags: 0
  m_IsActive: 1
--- !u!4 &4441319248487578548
Transform:
  m_ObjectHideFlags: 0
  m_CorrespondingSourceObject: {fileID: 0}
  m_PrefabInstance: {fileID: 0}
  m_PrefabAsset: {fileID: 0}
  m_GameObject: {fileID: 4441319248487578551}
  m_LocalRotation: {x: 0, y: 0, z: 0, w: 1}
  m_LocalPosition: {x: -129.31793, y: 3.159674, z: 74.25338}
  m_LocalScale: {x: 1, y: 1, z: 1}
  m_Children:
  - {fileID: 4441319247727076700}
  m_Father: {fileID: 0}
  m_RootOrder: 0
  m_LocalEulerAnglesHint: {x: 0, y: 0, z: 0}
--- !u!1001 &4441319247727476700
PrefabInstance:
  m_ObjectHideFlags: 0
  serializedVersion: 2
  m_Modification:
    m_TransformParent: {fileID: 4441319248487578548}
    m_Modifications:
    - target: {fileID: 100000, guid: 070becfa525379f4ca3442c5b1f0e2dd, type: 3}
      propertyPath: m_Name
      value: SpruceTree2
      objectReference: {fileID: 0}
    - target: {fileID: 100000, guid: 070becfa525379f4ca3442c5b1f0e2dd, type: 3}
      propertyPath: m_Layer
      value: 9
      objectReference: {fileID: 0}
    - target: {fileID: 400000, guid: 070becfa525379f4ca3442c5b1f0e2dd, type: 3}
      propertyPath: m_LocalPosition.x
      value: 0
      objectReference: {fileID: 0}
    - target: {fileID: 400000, guid: 070becfa525379f4ca3442c5b1f0e2dd, type: 3}
      propertyPath: m_LocalPosition.y
      value: 0
      objectReference: {fileID: 0}
    - target: {fileID: 400000, guid: 070becfa525379f4ca3442c5b1f0e2dd, type: 3}
      propertyPath: m_LocalPosition.z
      value: 0
      objectReference: {fileID: 0}
    - target: {fileID: 400000, guid: 070becfa525379f4ca3442c5b1f0e2dd, type: 3}
      propertyPath: m_LocalRotation.x
      value: -0.7071068
      objectReference: {fileID: 0}
    - target: {fileID: 400000, guid: 070becfa525379f4ca3442c5b1f0e2dd, type: 3}
      propertyPath: m_LocalRotation.y
      value: 0
      objectReference: {fileID: 0}
    - target: {fileID: 400000, guid: 070becfa525379f4ca3442c5b1f0e2dd, type: 3}
      propertyPath: m_LocalRotation.z
      value: -0
      objectReference: {fileID: 0}
    - target: {fileID: 400000, guid: 070becfa525379f4ca3442c5b1f0e2dd, type: 3}
      propertyPath: m_LocalRotation.w
      value: 0.7071067
      objectReference: {fileID: 0}
    - target: {fileID: 400000, guid: 070becfa525379f4ca3442c5b1f0e2dd, type: 3}
      propertyPath: m_RootOrder
      value: 0
      objectReference: {fileID: 0}
    - target: {fileID: 400000, guid: 070becfa525379f4ca3442c5b1f0e2dd, type: 3}
      propertyPath: m_LocalEulerAnglesHint.x
      value: 0
      objectReference: {fileID: 0}
    - target: {fileID: 400000, guid: 070becfa525379f4ca3442c5b1f0e2dd, type: 3}
      propertyPath: m_LocalEulerAnglesHint.y
      value: 0
      objectReference: {fileID: 0}
    - target: {fileID: 400000, guid: 070becfa525379f4ca3442c5b1f0e2dd, type: 3}
      propertyPath: m_LocalEulerAnglesHint.z
      value: 0
      objectReference: {fileID: 0}
    m_RemovedComponents: []
  m_SourcePrefab: {fileID: 100100000, guid: 070becfa525379f4ca3442c5b1f0e2dd, type: 3}
--- !u!1 &4441319247727507836 stripped
GameObject:
  m_CorrespondingSourceObject: {fileID: 100000, guid: 070becfa525379f4ca3442c5b1f0e2dd,
    type: 3}
  m_PrefabInstance: {fileID: 4441319247727476700}
  m_PrefabAsset: {fileID: 0}
--- !u!4 &4441319247727076700 stripped
Transform:
  m_CorrespondingSourceObject: {fileID: 400000, guid: 070becfa525379f4ca3442c5b1f0e2dd,
    type: 3}
  m_PrefabInstance: {fileID: 4441319247727476700}
  m_PrefabAsset: {fileID: 0}
